Clustering Analyses
…
## See spec(...) for full column specifications.

# Get rid of the Note column
patma <- patma[-30]
patma

## # A tibble: 157 x 29
##    CaseID Dx    SurgPathNo Pit1Median SF1Median ASUMedian PRLMedian
##     <dbl> <chr> <chr>           <dbl>     <dbl>     <dbl>     <dbl>
##  1      1 PRL   US07-15157          8         0       0         8  
##  2      2 GON   US08-2344           0         8       0         0  
##  3      3 GON   AS08-5683           0         5       0         0  
##  4      4 GON   US08-5441           0         8       0         0  
##  5      5 PRL   US08-3716           8         0       0         8  
##  6      6 GON   US08-8699           0         8       6.5       0  
##  7      7 TSH+  AS09-21389          8         0       7         1.5
##  8      8 GON   US08-11186          0         8       0         0  
##  9      9 GON   AS03-1622           0         8       4         0  
## 10     10 NULL  AS03-3360           0         0       0         0  
## #  with 147 more rows, and 22 more variables: GHMedian <dbl>,
## #   ACTHMedian <dbl>, FSHMedian <dbl>, LHMedian <dbl>, TSHMedian <dbl>,
## #   CAM52Median <dbl>, P53Median <dbl>, MIB1Median <dbl>, SYNMedian <dbl>,
## #   CHROMMedian <dbl>, ERMedian <dbl>, CK7Median <dbl>, CK20Median <dbl>,
## #   ECADMedian <dbl>, SSTR2AMedian <dbl>, GATA3Median <dbl>,
## #   TPITMedian <dbl>, CAM5.2Pattern <chr>, newDx <chr>, finDx <chr>,
## #   villaDx <chr>, villaCode <chr>
…
